{
    "name": "fake-tiles",
    "version": "1.1.4",
    "factorio_version": "0.17",
    "title": "Fake tiles",
    "author": "ZwerOxotnik",
    "contact": "zweroxotnik@gmail.com, https://steamcommunity.com/id/ZwerOxotnik, Discord:ZwerOxotnik#7117",
    "source": "https://github.com/ZwerOxotnik/fake-tiles",
    "homepage": "",
    "description": "This mod for mod developers and scenarios. Adds fake tiles. Players can't build anything on the tiles but can walk on the tiles",
    "dependencies": []
}